<?xml version="1.0" encoding="utf-8"?>
<!-- Generator: Adobe Illustrator 19.2.0, SVG Export Plug-In . SVG Version: 6.00 Build 0)  -->
<svg version="1.1" xmlns="http://www.w3.org/2000/svg" xmlns:xlink="http://www.w3.org/1999/xlink" x="0px" y="0px"
	 viewBox="0 0 21 23" style="enable-background:new 0 0 21 23;" xml:space="preserve">
<style type="text/css">
	.st0{display:none;}
	.st1{display:inline;fill:#D8D8D8;}
</style>
<g id="Layer_3" class="st0">
	<rect class="st1" width="21" height="23"/>
</g>
<g id="Layer_2">
	<g>
		<path d="M10.5,1C4.7,1,0,5.7,0,11.5S4.7,22,10.5,22S21,17.3,21,11.5S16.3,1,10.5,1z M10.5,21C5.3,21,1,16.7,1,11.5S5.3,2,10.5,2
			S20,6.3,20,11.5S15.7,21,10.5,21z"/>
		<path d="M11,11.3V4.5C11,4.2,10.8,4,10.5,4S10,4.2,10,4.5v7c0,0.1,0.1,0.3,0.1,0.4l4,4c0.1,0.1,0.2,0.1,0.4,0.1s0.3,0,0.4-0.1
			c0.2-0.2,0.2-0.5,0-0.7L11,11.3z"/>
	</g>
</g>
</svg>
