<?xml version="1.0" encoding="utf-8"?>
<!-- Generator: Adobe Illustrator 19.2.0, SVG Export Plug-In . SVG Version: 6.00 Build 0)  -->
<svg version="1.1" xmlns="http://www.w3.org/2000/svg" xmlns:xlink="http://www.w3.org/1999/xlink" x="0px" y="0px"
	 viewBox="0 0 17 23" style="enable-background:new 0 0 17 23;" xml:space="preserve">
<style type="text/css">
	.st0{display:none;}
	.st1{display:inline;fill:#D8D8D8;}
	.st2{display:inline;fill:#C9C9C9;}
	.st3{fill:none;stroke:#000000;stroke-linecap:round;stroke-linejoin:round;stroke-miterlimit:10;}
	.st4{fill:none;stroke:#000000;stroke-linejoin:round;stroke-miterlimit:10;}
	.st5{fill:none;stroke:#000000;stroke-width:2;stroke-linecap:round;stroke-linejoin:round;stroke-miterlimit:10;}
	.st6{stroke:#000000;stroke-linecap:square;stroke-linejoin:round;stroke-miterlimit:10;}
	.st7{fill:none;stroke:#000000;stroke-linecap:square;stroke-miterlimit:10;}
</style>
<g id="Layer_3" class="st0">
	<rect x="-5" class="st1" width="19" height="23"/>
	<rect x="-3" class="st1" width="23" height="23"/>
</g>
<g id="Layer_2">
	<path d="M15.9,19.3L13.1,14h1.4c0.3,0,0.5-0.2,0.5-0.5S14.8,13,14.5,13h-2l-2-3.7C11.4,8.7,12,7.7,12,6.5c0-1.8-1.3-3.2-3-3.4V2.5
		C9,2.2,8.8,2,8.5,2S8,2.2,8,2.5v0.6C6.3,3.3,5,4.7,5,6.5c0,1.2,0.6,2.2,1.5,2.8l-2,3.7h-2C2.2,13,2,13.2,2,13.5S2.2,14,2.5,14h1.4
		l-2.9,5.3c-0.1,0.2,0,0.5,0.2,0.7C1.3,20,1.4,20,1.5,20c0.2,0,0.3-0.1,0.4-0.3L5.1,14h6.9l3.1,5.7c0.1,0.2,0.3,0.3,0.4,0.3
		c0.1,0,0.2,0,0.2-0.1C16,19.8,16.1,19.5,15.9,19.3z M6,6.5C6,5.1,7.1,4,8.5,4S11,5.1,11,6.5S9.9,9,8.5,9S6,7.9,6,6.5z M5.6,13
		l1.7-3.2C7.7,9.9,8.1,10,8.5,10s0.8-0.1,1.1-0.2l1.7,3.2H5.6z"/>
</g>
</svg>
