<?xml version="1.0" encoding="utf-8"?>
<!-- Generator: Adobe Illustrator 19.2.0, SVG Export Plug-In . SVG Version: 6.00 Build 0)  -->
<svg version="1.1" xmlns="http://www.w3.org/2000/svg" xmlns:xlink="http://www.w3.org/1999/xlink" x="0px" y="0px"
	 viewBox="0 0 23 23" style="enable-background:new 0 0 23 23;" xml:space="preserve">
<style type="text/css">
	.st0{display:none;}
	.st1{display:inline;fill:#D8D8D8;}
</style>
<g id="Layer_3" class="st0">
	<rect class="st1" width="23" height="23"/>
</g>
<g id="Layer_2">
	<g>
		<path d="M22.5,11H21c-0.3-4.8-4.1-8.7-9-9V0.5C12,0.2,11.8,0,11.5,0S11,0.2,11,0.5V2c-4.8,0.3-8.7,4.1-9,9H0.5
			C0.2,11,0,11.2,0,11.5S0.2,12,0.5,12H2c0.3,4.8,4.1,8.7,9,9v1.5c0,0.3,0.2,0.5,0.5,0.5s0.5-0.2,0.5-0.5V21c4.8-0.3,8.7-4.1,9-9
			h1.5c0.3,0,0.5-0.2,0.5-0.5S22.8,11,22.5,11z M12,20v-1.5c0-0.3-0.2-0.5-0.5-0.5S11,18.2,11,18.5V20c-4.3-0.3-7.7-3.7-8-8h1.5
			C4.8,12,5,11.8,5,11.5S4.8,11,4.5,11H3c0.3-4.3,3.7-7.7,8-8v1.5C11,4.8,11.2,5,11.5,5S12,4.8,12,4.5V3c4.3,0.3,7.7,3.7,8,8h-1.5
			c-0.3,0-0.5,0.2-0.5,0.5s0.2,0.5,0.5,0.5H20C19.7,16.3,16.3,19.7,12,20z"/>
		<path d="M13.5,11H12V9.5C12,9.2,11.8,9,11.5,9S11,9.2,11,9.5V11H9.5C9.2,11,9,11.2,9,11.5S9.2,12,9.5,12H11v1.5
			c0,0.3,0.2,0.5,0.5,0.5s0.5-0.2,0.5-0.5V12h1.5c0.3,0,0.5-0.2,0.5-0.5S13.8,11,13.5,11z"/>
	</g>
</g>
</svg>
