<?xml version="1.0" encoding="utf-8"?>
<!-- Generator: Adobe Illustrator 19.2.0, SVG Export Plug-In . SVG Version: 6.00 Build 0)  -->
<svg version="1.1" xmlns="http://www.w3.org/2000/svg" xmlns:xlink="http://www.w3.org/1999/xlink" x="0px" y="0px"
	 viewBox="0 0 19 23" style="enable-background:new 0 0 19 23;" xml:space="preserve">
<g id="Layer_3">
</g>
<g id="Layer_2">
	<path style="opacity:0.4;fill:#003384;" d="M9.5,2C4.3,2,0,6.3,0,11.5S4.3,21,9.5,21s9.5-4.3,9.5-9.5S14.7,2,9.5,2z"/>
	<g>
		<path style="fill:#003384;" d="M9.5,21C4.3,21,0,16.7,0,11.5S4.3,2,9.5,2S19,6.3,19,11.5S14.7,21,9.5,21z M9.5,3
			C4.8,3,1,6.8,1,11.5C1,16.2,4.8,20,9.5,20s8.5-3.8,8.5-8.5C18,6.8,14.2,3,9.5,3z"/>
	</g>
</g>
</svg>
