<?xml version="1.0" encoding="utf-8"?>
<!-- Generator: Adobe Illustrator 19.2.0, SVG Export Plug-In . SVG Version: 6.00 Build 0)  -->
<svg version="1.1" xmlns="http://www.w3.org/2000/svg" xmlns:xlink="http://www.w3.org/1999/xlink" x="0px" y="0px"
	 viewBox="0 0 23 23" style="enable-background:new 0 0 23 23;" xml:space="preserve">
<g id="Layer_3">
</g>
<g id="Layer_2">
	<g>
		<path d="M19.8,7.6c-0.1-0.1-0.3-0.1-0.5-0.1C18,8,17,8.8,16.5,9.8c-0.8-1.3-2.4-2.2-4.5-2.6V5h-0.5C9.9,5,8.6,5.9,8.2,7.2
			C5.2,7.7,3,9.4,3,11.5C3,14,6.1,16,10,16c3,0,5.5-1.1,6.5-2.8c0.6,0.9,1.5,1.7,2.8,2.2c0.1,0,0.1,0,0.2,0c0.1,0,0.2,0,0.3-0.1
			c0.1-0.1,0.2-0.2,0.2-0.4V8C20,7.8,19.9,7.7,19.8,7.6z M11,6v1c-0.3,0-0.7,0-1,0C9.8,7,9.5,7,9.3,7C9.7,6.5,10.3,6.2,11,6z
			 M4,11.5C4,10.2,5.4,9,7.3,8.4C8.4,9.2,9,10.3,9,11.5c0,1.2-0.6,2.3-1.7,3.1C5.4,14,4,12.8,4,11.5z M10,15c-0.5,0-1,0-1.5-0.1
			c1-1,1.5-2.1,1.5-3.4c0-1.2-0.5-2.4-1.5-3.4C9,8,9.5,8,10,8c3.3,0,6,1.6,6,3.5C16,13.4,13.3,15,10,15z M19,14.1
			c-1.2-0.7-2-1.7-2-2.7s0.8-2,2-2.7V14.1z"/>
		<circle cx="6.5" cy="10.5" r="0.5"/>
	</g>
</g>
</svg>
