<?xml version="1.0" encoding="utf-8"?>
<!-- Generated by IcoMoon.io -->
<!DOCTYPE svg PUBLIC "-//W3C//DTD SVG 1.1//EN" "http://www.w3.org/Graphics/SVG/1.1/DTD/svg11.dtd">
<svg version="1.1" xmlns="http://www.w3.org/2000/svg" xmlns:xlink="http://www.w3.org/1999/xlink" width="20" height="32" viewBox="0 0 20 32">
<path d="M10.077 11.841c-5.566 0-10.077 4.514-10.077 10.080 0 5.569 4.51 10.080 10.077 10.080s10.077-4.51 10.077-10.080c0-5.566-4.51-10.080-10.077-10.080zM10.077 27.164c-2.896 0-5.244-2.351-5.244-5.244 0-2.896 2.345-5.244 5.244-5.244 2.893 0 5.244 2.345 5.244 5.244 0 2.893-2.351 5.244-5.244 5.244zM7.585 0h4.986v10.785h-4.986v-10.785z"></path>
</svg>
