{
	"id": "bathymetry_global",
	"name": "Global Bathymetry",
	"type": "Image",
	"source": {
		"type": "ImageWMS",
		"url": "v1/extension/wms/gebco",
		"params": {
			"FORMAT": "image/jpeg",
			"TRANSPARENT": false
		},
		"only": ["GEBCO_LATEST"]
	}
}
	