<?xml version="1.0" encoding="UTF-8"?>
<svg width="39px" height="39px" viewBox="0 0 39 39" version="1.1" xmlns="http://www.w3.org/2000/svg" xmlns:xlink="http://www.w3.org/1999/xlink">
    <g id="Vessel-equilatero-W" stroke="none" stroke-width="1" fill="none" fill-rule="evenodd">
        <g id="W" transform="translate(0.000000, 14.000000)">
            <rect id="Rectangle" fill="#FFFFFF" x="0" y="0" width="11" height="11"></rect>
            <g transform="translate(1.000000, 1.000000)" fill="#28303B">
                <rect id="Rectangle-4" x="8" y="7" width="1" height="1"></rect>
                <rect id="Rectangle-4-Copy-3" x="8" y="8" width="1" height="1"></rect>
                <rect id="Rectangle-4" x="8" y="6" width="1" height="1"></rect>
                <rect id="Rectangle-4" x="8" y="5" width="1" height="1"></rect>
                <rect id="Rectangle-4" x="8" y="3" width="1" height="1"></rect>
                <rect id="Rectangle-4" x="8" y="2" width="1" height="1"></rect>
                <rect id="Rectangle-4" x="8" y="1" width="1" height="1"></rect>
                <rect id="Rectangle-4-Copy-4" x="8" y="0" width="1" height="1"></rect>
                <rect id="Rectangle-4" x="8" y="4" width="1" height="1"></rect>
                <rect id="Rectangle-4" x="2" y="6" width="1" height="1"></rect>
                <rect id="Rectangle-4-Copy-5" x="1" y="7" width="1" height="1"></rect>
                <rect id="Rectangle-4" x="3" y="5" width="1" height="1"></rect>
                <rect id="Rectangle-4" x="6" y="6" width="1" height="1"></rect>
                <rect id="Rectangle-4-Copy-6" x="7" y="7" width="1" height="1"></rect>
                <rect id="Rectangle-4" x="5" y="5" width="1" height="1"></rect>
                <rect id="Rectangle-4" x="4" y="4" width="1" height="1"></rect>
                <rect id="Rectangle-4" x="4" y="3" width="1" height="1"></rect>
                <rect id="Rectangle-4" x="4" y="2" width="1" height="1"></rect>
                <rect id="Rectangle-4" x="0" y="7" width="1" height="1"></rect>
                <rect id="Rectangle-4-Copy-2" x="0" y="8" width="1" height="1"></rect>
                <rect id="Rectangle-4" x="0" y="6" width="1" height="1"></rect>
                <rect id="Rectangle-4" x="0" y="5" width="1" height="1"></rect>
                <rect id="Rectangle-4" x="0" y="4" width="1" height="1"></rect>
                <rect id="Rectangle-4" x="0" y="3" width="1" height="1"></rect>
                <rect id="Rectangle-4" x="0" y="2" width="1" height="1"></rect>
                <rect id="Rectangle-4" x="0" y="1" width="1" height="1"></rect>
                <rect id="Rectangle-4-Copy" x="0" y="0" width="1" height="1"></rect>
            </g>
        </g>
    </g>
</svg>